simulation/qsim/UpDownCounter_8bit.msim.vcd
$comment
	File created using the following command:
		vcd file UpDownCounter_8bit.msim.vcd -direction
$end
$date
	Mon Aug 11 22:19:25 2014
$end
$version
	ModelSim Version 10.1d
$end
$timescale
	1ps
$end
$scope module UpDownCounter_8bit_vlg_vec_tst $end
$var reg 1 ! clk $end
$var reg 1 " enable $end
$var reg 1 # reset $end
$var wire 1 $ count [4] $end
$var wire 1 % count [3] $end
$var wire 1 & count [2] $end
$var wire 1 ' count [1] $end
$var wire 1 ( count [0] $end
$var wire 1 ) sampler $end
$scope module i1 $end
$var wire 1 * gnd $end
$var wire 1 + vcc $end
$var wire 1 , unknown $end
$var tri1 1 - devclrn $end
$var tri1 1 . devpor $end
$var tri1 1 / devoe $end
$var wire 1 0 count[0]~output_o $end
$var wire 1 1 count[1]~output_o $end
$var wire 1 2 count[2]~output_o $end
$var wire 1 3 count[3]~output_o $end
$var wire 1 4 count[4]~output_o $end
$var wire 1 5 clk~input_o $end
$var wire 1 6 clk~inputclkctrl_outclk $end
$var wire 1 7 count[0]~5_combout $end
$var wire 1 8 reset~input_o $end
$var wire 1 9 enable~input_o $end
$var wire 1 : count[0]~7_combout $end
$var wire 1 ; count[0]~reg0_q $end
$var wire 1 < count[0]~6 $end
$var wire 1 = count[1]~8_combout $end
$var wire 1 > count[1]~reg0_q $end
$var wire 1 ? count[1]~9 $end
$var wire 1 @ count[2]~10_combout $end
$var wire 1 A count[2]~reg0_q $end
$var wire 1 B count[2]~11 $end
$var wire 1 C count[3]~12_combout $end
$var wire 1 D count[3]~reg0_q $end
$var wire 1 E count_state~0_combout $end
$var wire 1 F count_state~1_combout $end
$var wire 1 G count_state~q $end
$var wire 1 H count[3]~13 $end
$var wire 1 I count[4]~14_combout $end
$var wire 1 J count[4]~reg0_q $end
$upscope $end
$upscope $end
$enddefinitions $end
#0
$dumpvars
1!
0"
0#
0(
0'
0&
0%
0$
x)
0*
1+
x,
1-
1.
1/
00
01
02
03
04
15
16
17
08
09
0:
0;
0<
0=
0>
1?
0@
0A
0B
0C
0D
0E
0F
0G
1H
0I
0J
$end
#5000
0!
05
06
0)
#10000
1!
15
16
1)
#15000
0!
05
06
0)
#20000
1"
1!
19
15
16
1)
1:
#25000
0!
05
06
0)
#30000
1!
15
16
1)
1;
1<
07
10
1(
1=
#35000
0!
05
06
0)
#40000
1!
15
16
1)
1>
0;
1E
0?
0=
0<
17
11
00
1'
0(
1@
1?
1=
0@
#45000
0!
05
06
0)
#50000
1!
15
16
1)
1;
0E
1<
07
10
1(
0?
0=
1@
#55000
0!
05
06
0)
#60000
1!
15
16
1)
1A
0>
0;
1B
0@
1?
1=
0<
17
12
01
00
1&
0'
0(
1C
0B
1@
0=
0C
#65000
0!
05
06
0)
#70000
1!
15
16
1)
1;
1<
07
10
1(
1=
#75000
0!
05
06
0)
#80000
1#
1!
18
15
16
1)
0A
0;
0@
0<
17
02
00
0&
0(
0=
#85000
0!
05
06
0)
#90000
1!
15
16
1)
#95000
0!
05
06
0)
#100000
1!
15
16
1)
#105000
0!
05
06
0)
#110000
1!
15
16
1)
#115000
0!
05
06
0)
#120000
1!
15
16
1)
#125000
0!
05
06
0)
#130000
1!
15
16
1)
#135000
0!
05
06
0)
#140000
1!
15
16
1)
#145000
0!
05
06
0)
#150000
1!
15
16
1)
#155000
0!
05
06
0)
#160000
1!
15
16
1)
#165000
0!
05
06
0)
#170000
0#
1!
08
15
16
1)
1;
1<
07
10
1(
1=
#175000
0!
05
06
0)
#180000
1!
15
16
1)
1>
0;
1E
0?
0=
0<
17
11
00
1'
0(
1@
1?
1=
0@
#185000
0!
05
06
0)
#190000
1!
15
16
1)
1;
0E
1<
07
10
1(
0?
0=
1@
#195000
0!
05
06
0)
#200000
1!
15
16
1)
1A
0>
0;
1B
0@
1?
1=
0<
17
12
01
00
1&
0'
0(
1C
0B
1@
0=
0C
#205000
0!
05
06
0)
#210000
1!
15
16
1)
1;
1<
07
10
1(
1=
#215000
0!
05
06
0)
#220000
1!
15
16
1)
1>
0;
1E
0?
0=
0<
17
11
00
1'
0(
1B
0@
1?
1=
1C
0B
1@
0C
#225000
0!
05
06
0)
#230000
1!
15
16
1)
1;
0E
1<
07
10
1(
0?
0=
1B
0@
1C
#235000
0!
05
06
0)
#240000
1!
15
16
1)
1D
0A
0>
0;
0H
0C
0B
1@
1?
1=
0<
17
13
02
01
00
1%
0&
0'
0(
1I
1H
1C
0@
0=
0I
#245000
0!
05
06
0)
#250000
1!
15
16
1)
1;
1<
07
10
1(
1=
#255000
0!
05
06
0)
#260000
1!
15
16
1)
1>
0;
1E
0?
0=
0<
17
11
00
1'
0(
1@
1?
1=
0@
#265000
0!
05
06
0)
#270000
1!
15
16
1)
1;
0E
1<
07
10
1(
0?
0=
1@
#275000
0!
05
06
0)
#280000
1!
15
16
1)
1A
0>
0;
1B
0@
1?
1=
0<
17
12
01
00
1&
0'
0(
0H
0C
0B
1@
0=
1I
1H
1C
0I
#285000
0!
05
06
0)
#290000
1!
15
16
1)
1;
1<
07
10
1(
1=
#295000
0!
05
06
0)
#300000
1!
15
16
1)
1>
0;
1E
0?
0=
0<
17
11
00
1'
0(
1F
1B
0@
1?
1=
0H
0C
0B
1@
1I
1H
1C
0I
#305000
0!
05
06
0)
#310000
1!
15
16
1)
1G
1;
1I
0H
0C
1B
0@
0?
0=
1<
07
10
1(
0I
1C
1@
1=
#315000
0!
05
06
0)
#320000
1!
15
16
1)
0;
0<
17
00
0(
0=
#325000
0!
05
06
0)
#330000
1!
15
16
1)
0>
1;
0E
1?
1=
1<
07
01
10
0'
1(
0@
0?
0=
1@
#335000
0!
05
06
0)
#340000
1!
15
16
1)
0;
0<
17
00
0(
1?
1=
0@
#345000
0!
05
06
0)
#350000
1!
15
16
1)
0A
1>
1;
0B
1@
1E
0?
0=
1<
07
02
11
10
0&
1'
1(
0C
1B
0@
1=
1C
#355000
0!
05
06
0)
#360000
0"
1!
09
15
16
1)
0:
0;
0<
17
00
0(
0=
#365000
0!
05
06
0)
#370000
1!
15
16
1)
#375000
0!
05
06
0)
#380000
1!
15
16
1)
#385000
0!
05
06
0)
#390000
1!
15
16
1)
#395000
0!
05
06
0)
#400000
1!
15
16
1)
#405000
0!
05
06
0)
#410000
1!
15
16
1)
#415000
0!
05
06
0)
#420000
1!
15
16
1)
#425000
0!
05
06
0)
#430000
1!
15
16
1)
#435000
0!
05
06
0)
#440000
1!
15
16
1)
#445000
0!
05
06
0)
#450000
1!
15
16
1)
#455000
0!
05
06
0)
#460000
1!
15
16
1)
#465000
0!
05
06
0)
#470000
1!
15
16
1)
#475000
0!
05
06
0)
#480000
1"
1!
19
15
16
1)
1:
#485000
0!
05
06
0)
#490000
1!
15
16
1)
0>
1;
0E
1?
1=
1<
07
01
10
0'
1(
0B
1@
0?
0=
0C
1B
0@
1C
#495000
0!
05
06
0)
#500000
1!
15
16
1)
0;
0<
17
00
0(
1?
1=
0B
1@
0C
#505000
0!
05
06
0)
#510000
1!
15
16
1)
0D
1A
1>
1;
1H
1C
1B
0@
1E
0?
0=
1<
07
03
12
11
10
0%
1&
1'
1(
1I
0H
0C
1@
1=
0I
#515000
0!
05
06
0)
#520000
1!
15
16
1)
0;
0<
17
00
0(
0=
#525000
0!
05
06
0)
#530000
1!
15
16
1)
0>
1;
0E
1?
1=
1<
07
01
10
0'
1(
0@
0?
0=
1@
#535000
0!
05
06
0)
#540000
1!
15
16
1)
0;
0<
17
00
0(
1?
1=
0@
#545000
0!
05
06
0)
#550000
1!
15
16
1)
0A
1>
1;
0F
0B
1@
1E
0?
0=
1<
07
02
11
10
0&
1'
1(
1H
1C
1F
1B
0@
1=
1I
0H
0C
0I
#555000
0!
05
06
0)
#560000
1!
15
16
1)
0;
0<
17
00
0(
0=
#565000
0!
05
06
0)
#570000
1!
15
16
1)
0>
1;
0E
1?
1=
1<
07
01
10
0'
1(
0F
0B
1@
0?
0=
1H
1C
1B
0@
1I
0H
0C
0I
#575000
0!
05
06
0)
#580000
1!
15
16
1)
0G
0;
1I
1H
1C
0B
1@
1?
1=
0<
17
00
0(
0I
0C
0@
0=
#585000
0!
05
06
0)
#590000
1!
15
16
1)
1;
1<
07
10
1(
1=
#595000
0!
05
06
0)
#600000
1!
15
16
1)
1>
0;
1E
0?
0=
0<
17
11
00
1'
0(
1@
1?
1=
0@
#605000
0!
05
06
0)
#610000
1!
15
16
1)
1;
0E
1<
07
10
1(
0?
0=
1@
#615000
0!
05
06
0)
#620000
1!
15
16
1)
1A
0>
0;
1B
0@
1?
1=
0<
17
12
01
00
1&
0'
0(
1C
0B
1@
0=
0C
#625000
0!
05
06
0)
#630000
1!
15
16
1)
1;
1<
07
10
1(
1=
#635000
0!
05
06
0)
#640000
1!
15
16
1)
1>
0;
1E
0?
0=
0<
17
11
00
1'
0(
1B
0@
1?
1=
1C
0B
1@
0C
#645000
0!
05
06
0)
#650000
1!
15
16
1)
1;
0E
1<
07
10
1(
0?
0=
1B
0@
1C
#655000
0!
05
06
0)
#660000
1!
15
16
1)
1D
0A
0>
0;
0H
0C
0B
1@
1?
1=
0<
17
13
02
01
00
1%
0&
0'
0(
1I
1H
1C
0@
0=
0I
#665000
0!
05
06
0)
#670000
1!
15
16
1)
1;
1<
07
10
1(
1=
#675000
0!
05
06
0)
#680000
1!
15
16
1)
1>
0;
1E
0?
0=
0<
17
11
00
1'
0(
1@
1?
1=
0@
#685000
0!
05
06
0)
#690000
1!
15
16
1)
1;
0E
1<
07
10
1(
0?
0=
1@
#695000
0!
05
06
0)
#700000
1!
15
16
1)
1A
0>
0;
1B
0@
1?
1=
0<
17
12
01
00
1&
0'
0(
0H
0C
0B
1@
0=
1I
1H
1C
0I
#705000
0!
05
06
0)
#710000
1!
15
16
1)
1;
1<
07
10
1(
1=
#715000
0!
05
06
0)
#720000
1!
15
16
1)
1>
0;
1E
0?
0=
0<
17
11
00
1'
0(
1F
1B
0@
1?
1=
0H
0C
0B
1@
1I
1H
1C
0I
#725000
0!
05
06
0)
#730000
1!
15
16
1)
1G
1;
1I
0H
0C
1B
0@
0?
0=
1<
07
10
1(
0I
1C
1@
1=
#735000
0!
05
06
0)
#740000
1!
15
16
1)
0;
0<
17
00
0(
0=
#745000
0!
05
06
0)
#750000
1!
15
16
1)
0>
1;
0E
1?
1=
1<
07
01
10
0'
1(
0@
0?
0=
1@
#755000
0!
05
06
0)
#760000
1!
15
16
1)
0;
0<
17
00
0(
1?
1=
0@
#765000
0!
05
06
0)
#770000
1!
15
16
1)
0A
1>
1;
0B
1@
1E
0?
0=
1<
07
02
11
10
0&
1'
1(
0C
1B
0@
1=
1C
#775000
0!
05
06
0)
#780000
1!
15
16
1)
0;
0<
17
00
0(
0=
#785000
0!
05
06
0)
#790000
1!
15
16
1)
0>
1;
0E
1?
1=
1<
07
01
10
0'
1(
0B
1@
0?
0=
0C
1B
0@
1C
#795000
0!
05
06
0)
#800000
1!
15
16
1)
0;
0<
17
00
0(
1?
1=
0B
1@
0C
#805000
0!
05
06
0)
#810000
1#
1!
18
15
16
1)
0D
0F
1H
1C
03
0%
1I
#815000
0!
05
06
0)
#820000
1!
15
16
1)
0G
0I
0C
0@
0=
#825000
0!
05
06
0)
#830000
0#
1!
08
15
16
1)
1;
1<
07
10
1(
1=
#835000
0!
05
06
0)
#840000
1!
15
16
1)
1>
0;
1E
0?
0=
0<
17
11
00
1'
0(
1@
1?
1=
0@
#845000
0!
05
06
0)
#850000
1!
15
16
1)
1;
0E
1<
07
10
1(
0?
0=
1@
#855000
0!
05
06
0)
#860000
1!
15
16
1)
1A
0>
0;
1B
0@
1?
1=
0<
17
12
01
00
1&
0'
0(
1C
0B
1@
0=
0C
#865000
0!
05
06
0)
#870000
1!
15
16
1)
1;
1<
07
10
1(
1=
#875000
0!
05
06
0)
#880000
1!
15
16
1)
1>
0;
1E
0?
0=
0<
17
11
00
1'
0(
1B
0@
1?
1=
1C
0B
1@
0C
#885000
0!
05
06
0)
#890000
0"
1!
09
15
16
1)
0:
1;
0E
1<
07
10
1(
0?
0=
1B
0@
1C
#895000
0!
05
06
0)
#900000
1!
15
16
1)
#905000
0!
05
06
0)
#910000
1!
15
16
1)
#915000
0!
05
06
0)
#920000
1!
15
16
1)
#925000
0!
05
06
0)
#930000
1!
15
16
1)
#935000
0!
05
06
0)
#940000
1!
15
16
1)
#945000
0!
05
06
0)
#950000
1!
15
16
1)
#955000
0!
05
06
0)
#960000
1!
15
16
1)
#965000
0!
05
06
0)
#970000
1!
15
16
1)
#975000
0!
05
06
0)
#980000
1!
15
16
1)
#985000
0!
05
06
0)
#990000
1!
15
16
1)
#995000
0!
05
06
0)
